Preparing Tick Data - 1 Prepare Ticks data
…
# some reports are obivously duplicates: same x and y and date (time may vary slighly)
tick_reports |>
  group_by(x, y, date) |>
  filter(n() > 1) |>
  select(id, datetime)

Adding missing grouping variables: `x`, `y`, `date`

# A tibble: 397 × 5
# Groups:   x, y, date [176]
        x      y date          id datetime           
    <int>  <int> <date>     <int> <dttm>             
 1 609729 261433 2015-04-13   118 2015-04-13 08:34:29
 2 609729 261433 2015-04-13   119 2015-04-13 08:34:29
 3 731962 253501 2015-08-26  2028 2015-08-26 20:46:02
 4 731962 253501 2015-08-26  2029 2015-08-26 20:46:02
 5 621424 264799 2016-07-18  5737 2016-07-18 13:52:11
 6 621424 264799 2016-07-18  5738 2016-07-18 13:53:07
 7 634791 249092 2016-07-25  5967 2016-07-25 08:18:49
 8 634791 249092 2016-07-25  5968 2016-07-25 08:18:49
 9 634791 249092 2016-07-25  5969 2016-07-25 08:18:49
10 667235 212674 2016-08-04  6233 2016-08-04 09:34:30
# ℹ 387 more rows
…
